{
  "realm": "spadoja",
  "auth-server-url": "https://www.doja.co.nz/auth",
  "ssl-required": "none",
  "resource": "anfico_introduce",
  "public-client": true,
  "verify-token-audience": true,
  "use-resource-role-mappings": true,
  "confidential-port": 0,
  "credentials": {
    "secret": "anfico_introduce"
  }
}
